Chapter 7 dplyr and Pivot Tables | R for Excel Users
…
## # A tibble: 1 x 1
##   count
##   <int>
## 1  6366

So if we don’t group_by first, we will get a single summary statistic (sum in this case) for the whole dataset.

Another question: what if we only group_by?

lobsters %>%
  group_by(year)

## # A tibble: 6,366 x 7
## # Groups:   year [7]
##     year month date    site  transect replicate size_mm
##    <dbl> <dbl> <chr>   <chr>    <dbl> <chr>       <dbl>
##  1  2012     8 8/20/12 ivee         3 A              70
##  2  2012     8 8/20/12 ivee         3 B              60
##  3  2012     8 8/20/12 ivee         3 B              65
##  4  2012     8 8/20/12 ivee         3 B              70
##  5  2012     8 8/20/12 ivee         3 B              85
##  6  2012     8 8/20/12 ivee         3 C              60
##  7  2012     8 8/20/12 ivee         3 C              65
##  8  2012     8 8/20/12 ivee         3 C              67
##  9  2012     8 8/20/12 ivee         3 D              70
## 10  2012     8 8/20/12 ivee         4 B              85
## # … with 6,356 more rows
…
Let’s now check the lobsters variable. We can do this by clicking on lobsters in the Environment pane in RStudio.

We see that we haven’t changed any of our original data that was stored in this variable. (Just like how the pivot table didn’t affect the raw data on the original sheet).

Aside: You’ll also see that when you click on the variable name in the Environment pane, View(lobsters) shows up in your Console. View() (capital V) is the R function to view any variable in the viewer. So this is something that you can write in your RMarkdown script, although RMarkdown will not be able to knit this view feature into the formatted document. So, if you want include View() in your RMarkdown document you will need to either comment it out #View() or add eval=FALSE to the top of the code chunk so that the full line reads {r, eval=FALSE}.

7.7.3 group_by multiple variables

Great. Now let’s summarize by both year and site like we did in the pivot table. We are able to group_by more than one variable. Let’s do this together:

lobsters %>%
  group_by(site, year) %>%
  summarize(count_by_siteyear =  n())

## # A tibble: 35 x 3
## # Groups:   site [5]
##    site   year count_by_siteyear
##    <chr> <dbl>             <int>
##  1 aque   2012                38
##  2 aque   2013                32
##  3 aque   2014               100
##  4 aque   2015                83
##  5 aque   2016                48
##  6 aque   2017                67
##  7 aque   2018                54
##  8 carp   2012                78
##  9 carp   2013                93
## 10 carp   2014                79
## # … with 25 more rows

text.

7.7.4 summarize multiple variables

We can summarize multiple variables at a time. So far we’ve done the count of lobster observations. Let’s also do the mean and standard deviation. First let’s use the mean() function to calculate the mean. We do this within the same summarize() function, but we can add a new line to make it easier to read. Notice how when you put your curser within the parenthesis and hit return, the indentation will automatically align.

lobsters %>%
  group_by(site, year) %>%
  summarize(count_by_siteyear =  n(),
            mean_size_mm = mean(size_mm))

## # A tibble: 35 x 4
## # Groups:   site [5]
##    site   year count_by_siteyear mean_size_mm
##    <chr> <dbl>             <int>        <dbl>
##  1 aque   2012                38         71  
##  2 aque   2013                32         72.1
##  3 aque   2014               100         76.9
##  4 aque   2015                83         68.5
##  5 aque   2016                48         68.7
##  6 aque   2017                67         73.9
##  7 aque   2018                54         71.7
##  8 carp   2012                78         74.4
##  9 carp   2013                93         76.6
## 10 carp   2014                79         NA  
## # … with 25 more rows

Aside Command-I will properly indent selected lines.

Great! But this will actually calculate some of the means as NA because one or more values in that year are NA. So we can pass an argument that says to remove NAs first before calculating the average. Let’s do that, and then also calculate the standard deviation with the sd() function:

lobsters %>%
  group_by(site, year) %>%
  summarize(count_by_siteyear =  n(), 
            mean_size_mm = mean(size_mm, na.rm=TRUE), 
            sd_size_mm = sd(size_mm, na.rm=TRUE))

## # A tibble: 35 x 5
## # Groups:   site [5]
##    site   year count_by_siteyear mean_size_mm sd_size_mm
##    <chr> <dbl>             <int>        <dbl>      <dbl>
##  1 aque   2012                38         71        10.2 
##  2 aque   2013                32         72.1      12.3 
##  3 aque   2014               100         76.9       9.32
##  4 aque   2015                83         68.5      12.6 
##  5 aque   2016                48         68.7      12.5 
##  6 aque   2017                67         73.9      11.9 
##  7 aque   2018                54         71.7       8.14
##  8 carp   2012                78         74.4      14.6 
##  9 carp   2013                93         76.6       8.71
## 10 carp   2014                79         79.1       8.57
## # … with 25 more rows

So we can make the equivalent of Excel’s pivot table in R with group_by and then summarize. But a powerful thing about R is that maybe we want this information to be used in further analyses. We can make this easier for ourselves by saving this as a variable. So let’s add a variable assignment to that first line:

siteyear_summary <- lobsters %>%
  group_by(site, year) %>%
  summarize(count_by_siteyear =  n(), 
            mean_size_mm = mean(size_mm, na.rm = TRUE), 
            sd_size_mm = sd(size_mm, na.rm = TRUE))

siteyear_summary

## # A tibble: 35 x 5
## # Groups:   site [5]
##    site   year count_by_siteyear mean_size_mm sd_size_mm
##    <chr> <dbl>             <int>        <dbl>      <dbl>
##  1 aque   2012                38         71        10.2 
##  2 aque   2013                32         72.1      12.3 
##  3 aque   2014               100         76.9       9.32
##  4 aque   2015                83         68.5      12.6 
##  5 aque   2016                48         68.7      12.5 
##  6 aque   2017                67         73.9      11.9 
##  7 aque   2018                54         71.7       8.14
##  8 carp   2012                78         74.4      14.6 
##  9 carp   2013                93         76.6       8.71
## 10 carp   2014                79         79.1       8.57
## # … with 25 more rows
…
## read in data
lobsters <- read_xlsx(here("data/lobsters2.xlsx"))

And now we can see that our plot updated as well:

siteyear_summary <- lobsters %>%
  group_by(site, year) %>%
  summarize(count_by_siteyear =  n(), 
            mean_size_mm = mean(size_mm, na.rm = TRUE), 
            sd_size_mm = sd(size_mm, na.rm = TRUE), 
            median_size_mm = median(size_mm, na.rm = TRUE), )

siteyear_summary

## # A tibble: 35 x 6
## # Groups:   site [5]
##    site   year count_by_siteyear mean_size_mm sd_size_mm median_size_mm
##    <chr> <dbl>             <int>        <dbl>      <dbl>          <dbl>
##  1 aque   2012                38         71        10.2            70  
##  2 aque   2013                32         72.1      12.3            75  
##  3 aque   2014               100         76.9       9.32           75.5
##  4 aque   2015                83         68.5      12.6            70  
##  5 aque   2016                48         68.7      12.5            71  
##  6 aque   2017                67         73.9      11.9            75  
##  7 aque   2018                54         71.7       8.14           72  
##  8 carp   2012                78         74.4      14.6            74.5
##  9 carp   2013                93         76.6       8.71           76  
## 10 carp   2014                79         79.1       8.57           79  
## # … with 25 more rows
…
## # A tibble: 6 x 7
##    year month date    site  transect replicate size_mm
##   <dbl> <dbl> <chr>   <chr>    <dbl> <chr>       <dbl>
## 1  2012     8 8/20/12 ivee         3 A              70
## 2  2012     8 8/20/12 ivee         3 B              60
## 3  2012     8 8/20/12 ivee         3 B              65
## 4  2012     8 8/20/12 ivee         3 B              70
## 5  2012     8 8/20/12 ivee         3 B              85
## 6  2012     8 8/20/12 ivee         3 C              60

lobsters %>%
  mutate(size_m = size_mm / 1000)

## # A tibble: 6,366 x 8
##     year month date    site  transect replicate size_mm size_m
##    <dbl> <dbl> <chr>   <chr>    <dbl> <chr>       <dbl>  <dbl>
##  1  2012     8 8/20/12 ivee         3 A              70  0.07 
##  2  2012     8 8/20/12 ivee         3 B              60  0.06 
##  3  2012     8 8/20/12 ivee         3 B              65  0.065
##  4  2012     8 8/20/12 ivee         3 B              70  0.07 
##  5  2012     8 8/20/12 ivee         3 B              85  0.085
##  6  2012     8 8/20/12 ivee         3 C              60  0.06 
##  7  2012     8 8/20/12 ivee         3 C              65  0.065
##  8  2012     8 8/20/12 ivee         3 C              67  0.067
##  9  2012     8 8/20/12 ivee         3 D              70  0.07 
## 10  2012     8 8/20/12 ivee         4 B              85  0.085
## # … with 6,356 more rows
…
Let’s say that we want to present this data finally with only columns for date, site, and size in meters. We would do this:

lobsters_detailed %>%
  select(date, site, size_m)

## # A tibble: 6,366 x 3
##    date    site  size_m
##    <chr>   <chr>  <dbl>
##  1 8/20/12 ivee   0.07 
##  2 8/20/12 ivee   0.06 
##  3 8/20/12 ivee   0.065
##  4 8/20/12 ivee   0.07 
##  5 8/20/12 ivee   0.085
##  6 8/20/12 ivee   0.06 
##  7 8/20/12 ivee   0.065
##  8 8/20/12 ivee   0.067
##  9 8/20/12 ivee   0.07 
## 10 8/20/12 ivee   0.085
## # … with 6,356 more rows
…
