Chapter 5 readxl | R for Excel Users
…
Where observations were not recorded, there exists ‘-9999’

Let’s go ahead and read in the data. If the file is in our working directory, we can read in a single worksheet .xlsx file using read_excel("file_name.xlsx"). Note: read_excel() works for both .xlsx and .xls types.

Like this:

substrate_cover <- read_excel(here("data", "substrate_cover_curated.xlsx"))

Tada? Not quite.

Click on the object name (substrate_cover) in the Environment to view the data in a new tab. A few things aren’t ideal:

substrate_cover

## # A tibble: 23,942 x 9
##    `Substrate cover dataset,… ...2  ...3   ...4  ...5  ...6  ...7  ...8   ...9  
##    <chr>                      <chr> <chr>  <chr> <chr> <chr> <chr> <chr>  <chr> 
##  1 Source: https://portal.ed… <NA>  <NA>   <NA>  <NA>  <NA>  <NA>  <NA>   <NA>  
##  2 Accessed: 9/28/2019        <NA>  <NA>   <NA>  <NA>  <NA>  <NA>  <NA>   <NA>  
##  3 <NA>                       <NA>  <NA>   <NA>  <NA>  <NA>  <NA>  <NA>   <NA>  
##  4 year                       month date   site  tran… quad  side  subst… perce…
##  5 -9999                      -9999 -9999  carp  1     20    i     b      -9999 
##  6 2000                       9     -9999  carp  1     20    o     b      -9999 
##  7 2000                       9     9/8/00 carp  1     20    i     b      100   
##  8 2000                       9     9/8/00 carp  1     20    o     b      100   
##  9 2000                       9     9/8/00 carp  1     40    i     b      100   
## 10 2000                       9     9/8/00 carp  1     40    o     b      100   
## # … with 23,932 more rows
…
There are multiple descriptive rows before we actually get to the data

There are -9999s that we want R to understand as NA instead

We can deal with those issues by adding arguments within read_excel(). Like:

Add skip = n to skip the first ‘n’ rows when importing data

Add na = "this" to replace “this” with NA when reading in spreadsheet data

substrate_cover <- read_excel(here("data", "substrate_cover_curated.xlsx, skip = 4, na = "-9999")

substrate_cover

## # A tibble: 23,938 x 9
##    year  month date   site  transect quad  side  substrate_type percent_cover
##    <chr> <chr> <chr>  <chr> <chr>    <chr> <chr> <chr>          <chr>        
##  1 <NA>  <NA>  <NA>   carp  1        20    i     b              <NA>         
##  2 2000  9     <NA>   carp  1        20    o     b              <NA>         
##  3 2000  9     9/8/00 carp  1        20    i     b              100          
##  4 2000  9     9/8/00 carp  1        20    o     b              100          
##  5 2000  9     9/8/00 carp  1        40    i     b              100          
##  6 2000  9     9/8/00 carp  1        40    o     b              100          
##  7 2000  9     9/8/00 carp  2        20    i     b              90           
##  8 2000  9     9/8/00 carp  2        20    o     b              80           
##  9 2000  9     9/8/00 carp  2        40    i     b              80           
## 10 2000  9     9/8/00 carp  2        40    o     b              85           
## # … with 23,928 more rows
…
Here, we’ll use the pipe operator to complete steps 1 - 4 above in sequence:

kelp_path <- here("data", "kelp_counts_curated.xlsx")

kelp_all_sites <- kelp_path %>% 
  excel_sheets() %>% 
  set_names() %>% 
  purrr::map_df(read_excel, kelp_path)

Check out kelp_all_sites, and notice that now the data from all 11 sites is now collected into a single data frame:

kelp_all_sites

## # A tibble: 32 x 4
##    year  month site  total_fronds
##    <chr> <chr> <chr>        <dbl>
##  1 2016  7     abur           307
##  2 2017  7     abur           604
##  3 2018  7     abur          3532
##  4 2016  7     ahnd          2572
##  5 2017  7     ahnd            16
##  6 2018  7     ahnd            16
##  7 2016  7     aque         11152
##  8 2017  7     aque          9194
##  9 2018  7     aque          7754
## 10 2016  7     bull          6706
## # … with 22 more rows
…
