Chapter 7 Tidying | R for Excel Users
…
one called sp_count containing the number of each species observed.

The new data frame will be stored as inverts_long:

inverts_long <- pivot_longer(data = inverts, 
                                    cols = '2016':'2018',
                                    names_to = "year",
                                    values_to = "sp_count")

The outcome is the new long-format inverts_long data frame:

inverts_long

## # A tibble: 165 x 5
##    month site  common_name              year  sp_count
##    <chr> <chr> <chr>                    <chr>    <dbl>
##  1 7     abur  california cone snail    2016       451
##  2 7     abur  california cone snail    2017        28
##  3 7     abur  california cone snail    2018       762
##  4 7     abur  california spiny lobster 2016        17
##  5 7     abur  california spiny lobster 2017        17
##  6 7     abur  california spiny lobster 2018        16
##  7 7     abur  orange cup coral         2016        24
##  8 7     abur  orange cup coral         2017        24
##  9 7     abur  orange cup coral         2018        24
## 10 7     abur  purple urchin            2016        48
## # … with 155 more rows
…
7.6 Long-to-wider format with tidyr::pivot_wider()

In the previous example, we had information spread over multiple columns that we wanted to gather. Sometimes, we’ll have data that we want to spread over multiple columns.

For example, imagine that starting from inverts_long we want each species in the common_name column to exist as its own column. In that case, we would be converting from a longer to a wider format, and will use tidyr::pivot_wider().

Specifically for our data, we’ll use pivot_wider() to spread the common_name across multiple columns as follows:

inverts_wide <- inverts_long %>% 
  pivot_wider(names_from = common_name, 
                     values_from = sp_count)

inverts_wide

## # A tibble: 33 x 8
##    month site   year `california con… `california spi… `orange cup cor…
##    <chr> <chr> <dbl>            <dbl>            <dbl>            <dbl>
##  1 7     abur   2016              451               17               24
##  2 7     abur   2017               28               17               24
##  3 7     abur   2018              762               16               24
##  4 7     ahnd   2016               27               16               24
##  5 7     ahnd   2017               24               16               24
##  6 7     ahnd   2018               24               16               24
##  7 7     aque   2016             4971               48             1526
##  8 7     aque   2017             1752               48             1623
##  9 7     aque   2018             2616               48             1859
## 10 7     bull   2016             1735               24               36
## # … with 23 more rows, and 2 more variables: `purple urchin` <dbl>, `rock
## #   scallop` <dbl>
…
Aha! Only the first word of the common name was retained, and anything else was trashed. We want to keep everything after the second dash in the new the_name column.

That’s because the default is extra = "warn", which means that if you have more pieces than columns you’re separating into, it will populate the columns that have been allotted (in our case, just 3) then drop any additional information, giving you a warning that pieces have been dropped.

To keep the extra pieces that have been dropped, add the extra = "merge" argument within tidyr::separate() to override:

inverts_sep_all <- inverts_triple_unite %>% 
  separate(year_site_name, 
           into = c("sample_year", "location", "sp_name"), 
           extra = "merge")

No warning there about things being discarded. Explore inverts_sep_all:

## # A tibble: 165 x 5
##    month sample_year location sp_name                  sp_count
##    <chr> <chr>       <chr>    <chr>                       <dbl>
##  1 7     2016        abur     california cone snail         451
##  2 7     2017        abur     california cone snail          28
##  3 7     2018        abur     california cone snail         762
##  4 7     2016        abur     california spiny lobster       17
##  5 7     2017        abur     california spiny lobster       17
##  6 7     2018        abur     california spiny lobster       16
##  7 7     2016        abur     orange cup coral               24
##  8 7     2017        abur     orange cup coral               24
##  9 7     2018        abur     orange cup coral               24
## 10 7     2016        abur     purple urchin                  48
## # … with 155 more rows
…
